
graph gil {
1 -- 2;
1 -- 4;
1 -- 5;
1 -- 7;
1 -- 8;
1 -- 9;
1 -- 10;
1 -- 11;
1 -- 12;
1 -- 14;
1 -- 16;
1 -- 18;
1 -- 19;
1 -- 20;
1 -- 22;
1 -- 23;
1 -- 24;
1 -- 25;
1 -- 27;
1 -- 28;
1 -- 29;
1 -- 31;
1 -- 33;
1 -- 34;
1 -- 36;
1 -- 38;
1 -- 40;
1 -- 41;
1 -- 44;
1 -- 45;
1 -- 46;
1 -- 49;
1 -- 50;
1 -- 51;
1 -- 54;
1 -- 55;
1 -- 58;
1 -- 59;
1 -- 60;
1 -- 62;
1 -- 63;
1 -- 64;
1 -- 65;
1 -- 66;
1 -- 68;
1 -- 69;
1 -- 71;
1 -- 72;
1 -- 73;
1 -- 74;
1 -- 76;
1 -- 77;
1 -- 78;
1 -- 80;
1 -- 81;
1 -- 82;
1 -- 83;
1 -- 84;
1 -- 85;
1 -- 86;
1 -- 88;
1 -- 89;
1 -- 90;
1 -- 91;
1 -- 92;
1 -- 93;
1 -- 94;
1 -- 97;
1 -- 98;
1 -- 99;
2 -- 3;
2 -- 4;
2 -- 6;
2 -- 7;
2 -- 8;
2 -- 9;
2 -- 10;
2 -- 11;
2 -- 12;
2 -- 14;
2 -- 16;
2 -- 17;
2 -- 20;
2 -- 21;
2 -- 22;
2 -- 23;
2 -- 24;
2 -- 26;
2 -- 27;
2 -- 29;
2 -- 32;
2 -- 33;
2 -- 34;
2 -- 35;
2 -- 36;
2 -- 37;
2 -- 39;
2 -- 41;
2 -- 42;
2 -- 45;
2 -- 46;
2 -- 50;
2 -- 51;
2 -- 52;
2 -- 53;
2 -- 55;
2 -- 56;
2 -- 58;
2 -- 60;
2 -- 62;
2 -- 64;
2 -- 65;
2 -- 66;
2 -- 68;
2 -- 73;
2 -- 74;
2 -- 75;
2 -- 76;
2 -- 77;
2 -- 78;
2 -- 80;
2 -- 81;
2 -- 82;
2 -- 84;
2 -- 86;
2 -- 91;
2 -- 93;
2 -- 94;
2 -- 96;
2 -- 98;
2 -- 99;
2 -- 100;
3 -- 4;
3 -- 5;
3 -- 8;
3 -- 10;
3 -- 12;
3 -- 13;
3 -- 14;
3 -- 15;
3 -- 16;
3 -- 17;
3 -- 18;
3 -- 19;
3 -- 21;
3 -- 22;
3 -- 23;
3 -- 27;
3 -- 29;
3 -- 32;
3 -- 33;
3 -- 36;
3 -- 37;
3 -- 38;
3 -- 40;
3 -- 41;
3 -- 44;
3 -- 45;
3 -- 46;
3 -- 48;
3 -- 49;
3 -- 51;
3 -- 52;
3 -- 53;
3 -- 57;
3 -- 58;
3 -- 61;
3 -- 64;
3 -- 66;
3 -- 67;
3 -- 68;
3 -- 70;
3 -- 71;
3 -- 72;
3 -- 75;
3 -- 76;
3 -- 77;
3 -- 80;
3 -- 82;
3 -- 84;
3 -- 85;
3 -- 92;
3 -- 93;
3 -- 95;
3 -- 97;
3 -- 98;
3 -- 99;
3 -- 100;
4 -- 5;
4 -- 8;
4 -- 9;
4 -- 11;
4 -- 12;
4 -- 13;
4 -- 16;
4 -- 18;
4 -- 19;
4 -- 20;
4 -- 21;
4 -- 24;
4 -- 27;
4 -- 29;
4 -- 30;
4 -- 32;
4 -- 35;
4 -- 36;
4 -- 37;
4 -- 38;
4 -- 39;
4 -- 40;
4 -- 42;
4 -- 43;
4 -- 44;
4 -- 45;
4 -- 46;
4 -- 47;
4 -- 48;
4 -- 49;
4 -- 52;
4 -- 54;
4 -- 56;
4 -- 58;
4 -- 60;
4 -- 61;
4 -- 62;
4 -- 63;
4 -- 66;
4 -- 67;
4 -- 70;
4 -- 73;
4 -- 76;
4 -- 77;
4 -- 82;
4 -- 83;
4 -- 86;
4 -- 87;
4 -- 89;
4 -- 92;
4 -- 96;
4 -- 98;
4 -- 100;
5 -- 6;
5 -- 11;
5 -- 12;
5 -- 13;
5 -- 15;
5 -- 16;
5 -- 17;
5 -- 18;
5 -- 19;
5 -- 20;
5 -- 21;
5 -- 22;
5 -- 23;
5 -- 25;
5 -- 26;
5 -- 29;
5 -- 30;
5 -- 31;
5 -- 32;
5 -- 33;
5 -- 34;
5 -- 36;
5 -- 38;
5 -- 39;
5 -- 40;
5 -- 44;
5 -- 46;
5 -- 47;
5 -- 48;
5 -- 49;
5 -- 51;
5 -- 52;
5 -- 53;
5 -- 55;
5 -- 56;
5 -- 58;
5 -- 61;
5 -- 63;
5 -- 64;
5 -- 65;
5 -- 66;
5 -- 69;
5 -- 71;
5 -- 76;
5 -- 78;
5 -- 81;
5 -- 82;
5 -- 83;
5 -- 84;
5 -- 85;
5 -- 86;
5 -- 90;
5 -- 91;
5 -- 92;
5 -- 93;
5 -- 94;
5 -- 95;
5 -- 97;
5 -- 98;
5 -- 99;
5 -- 100;
6 -- 7;
6 -- 8;
6 -- 11;
6 -- 13;
6 -- 15;
6 -- 16;
6 -- 17;
6 -- 21;
6 -- 22;
6 -- 23;
6 -- 26;
6 -- 27;
6 -- 29;
6 -- 33;
6 -- 36;
6 -- 37;
6 -- 38;
6 -- 42;
6 -- 43;
6 -- 45;
6 -- 46;
6 -- 47;
6 -- 48;
6 -- 49;
6 -- 50;
6 -- 55;
6 -- 56;
6 -- 57;
6 -- 59;
6 -- 60;
6 -- 61;
6 -- 62;
6 -- 64;
6 -- 66;
6 -- 67;
6 -- 68;
6 -- 69;
6 -- 70;
6 -- 71;
6 -- 73;
6 -- 74;
6 -- 75;
6 -- 76;
6 -- 77;
6 -- 79;
6 -- 80;
6 -- 82;
6 -- 84;
6 -- 85;
6 -- 86;
6 -- 87;
6 -- 89;
6 -- 91;
6 -- 96;
6 -- 97;
6 -- 98;
6 -- 100;
7 -- 8;
7 -- 9;
7 -- 11;
7 -- 14;
7 -- 15;
7 -- 16;
7 -- 19;
7 -- 20;
7 -- 21;
7 -- 22;
7 -- 23;
7 -- 25;
7 -- 26;
7 -- 29;
7 -- 30;
7 -- 35;
7 -- 36;
7 -- 38;
7 -- 39;
7 -- 40;
7 -- 43;
7 -- 44;
7 -- 45;
7 -- 46;
7 -- 47;
7 -- 48;
7 -- 49;
7 -- 50;
7 -- 57;
7 -- 58;
7 -- 62;
7 -- 63;
7 -- 65;
7 -- 68;
7 -- 69;
7 -- 70;
7 -- 73;
7 -- 74;
7 -- 75;
7 -- 76;
7 -- 77;
7 -- 78;
7 -- 80;
7 -- 85;
7 -- 87;
7 -- 88;
7 -- 89;
7 -- 90;
7 -- 91;
7 -- 93;
7 -- 96;
7 -- 97;
7 -- 98;
8 -- 9;
8 -- 10;
8 -- 12;
8 -- 16;
8 -- 19;
8 -- 20;
8 -- 21;
8 -- 22;
8 -- 23;
8 -- 25;
8 -- 26;
8 -- 27;
8 -- 28;
8 -- 30;
8 -- 31;
8 -- 32;
8 -- 36;
8 -- 37;
8 -- 39;
8 -- 41;
8 -- 42;
8 -- 45;
8 -- 50;
8 -- 52;
8 -- 54;
8 -- 56;
8 -- 58;
8 -- 60;
8 -- 61;
8 -- 63;
8 -- 65;
8 -- 69;
8 -- 70;
8 -- 71;
8 -- 72;
8 -- 74;
8 -- 76;
8 -- 77;
8 -- 78;
8 -- 80;
8 -- 83;
8 -- 84;
8 -- 85;
8 -- 86;
8 -- 87;
8 -- 90;
8 -- 91;
8 -- 94;
8 -- 96;
8 -- 97;
9 -- 10;
9 -- 13;
9 -- 14;
9 -- 15;
9 -- 16;
9 -- 17;
9 -- 20;
9 -- 21;
9 -- 23;
9 -- 26;
9 -- 27;
9 -- 28;
9 -- 29;
9 -- 30;
9 -- 31;
9 -- 32;
9 -- 37;
9 -- 38;
9 -- 39;
9 -- 40;
9 -- 43;
9 -- 45;
9 -- 46;
9 -- 47;
9 -- 49;
9 -- 52;
9 -- 56;
9 -- 58;
9 -- 60;
9 -- 61;
9 -- 62;
9 -- 63;
9 -- 68;
9 -- 69;
9 -- 70;
9 -- 71;
9 -- 73;
9 -- 74;
9 -- 75;
9 -- 78;
9 -- 79;
9 -- 81;
9 -- 82;
9 -- 83;
9 -- 85;
9 -- 86;
9 -- 87;
9 -- 88;
9 -- 90;
9 -- 91;
9 -- 92;
9 -- 94;
9 -- 96;
9 -- 98;
9 -- 99;
9 -- 100;
10 -- 11;
10 -- 12;
10 -- 15;
10 -- 16;
10 -- 20;
10 -- 22;
10 -- 23;
10 -- 24;
10 -- 25;
10 -- 26;
10 -- 27;
10 -- 30;
10 -- 31;
10 -- 32;
10 -- 34;
10 -- 35;
10 -- 36;
10 -- 37;
10 -- 39;
10 -- 40;
10 -- 41;
10 -- 42;
10 -- 46;
10 -- 47;
10 -- 48;
10 -- 51;
10 -- 52;
10 -- 55;
10 -- 57;
10 -- 59;
10 -- 60;
10 -- 61;
10 -- 62;
10 -- 63;
10 -- 66;
10 -- 67;
10 -- 71;
10 -- 72;
10 -- 73;
10 -- 74;
10 -- 77;
10 -- 82;
10 -- 83;
10 -- 85;
10 -- 86;
10 -- 89;
10 -- 90;
10 -- 91;
10 -- 92;
10 -- 95;
10 -- 96;
10 -- 97;
10 -- 98;
10 -- 100;
11 -- 12;
11 -- 13;
11 -- 15;
11 -- 16;
11 -- 17;
11 -- 18;
11 -- 19;
11 -- 20;
11 -- 21;
11 -- 23;
11 -- 24;
11 -- 28;
11 -- 29;
11 -- 30;
11 -- 31;
11 -- 32;
11 -- 35;
11 -- 37;
11 -- 38;
11 -- 43;
11 -- 46;
11 -- 48;
11 -- 51;
11 -- 55;
11 -- 56;
11 -- 58;
11 -- 59;
11 -- 62;
11 -- 64;
11 -- 65;
11 -- 66;
11 -- 67;
11 -- 68;
11 -- 69;
11 -- 70;
11 -- 71;
11 -- 73;
11 -- 74;
11 -- 75;
11 -- 77;
11 -- 78;
11 -- 82;
11 -- 85;
11 -- 86;
11 -- 87;
11 -- 88;
11 -- 90;
11 -- 91;
11 -- 92;
11 -- 94;
11 -- 95;
11 -- 98;
11 -- 99;
12 -- 13;
12 -- 15;
12 -- 17;
12 -- 20;
12 -- 21;
12 -- 22;
12 -- 27;
12 -- 28;
12 -- 29;
12 -- 30;
12 -- 34;
12 -- 36;
12 -- 38;
12 -- 39;
12 -- 40;
12 -- 41;
12 -- 43;
12 -- 45;
12 -- 46;
12 -- 49;
12 -- 51;
12 -- 52;
12 -- 54;
12 -- 55;
12 -- 56;
12 -- 58;
12 -- 60;
12 -- 61;
12 -- 62;
12 -- 63;
12 -- 64;
12 -- 65;
12 -- 68;
12 -- 69;
12 -- 70;
12 -- 71;
12 -- 74;
12 -- 76;
12 -- 78;
12 -- 79;
12 -- 81;
12 -- 82;
12 -- 84;
12 -- 86;
12 -- 90;
12 -- 91;
12 -- 92;
12 -- 93;
12 -- 94;
12 -- 97;
12 -- 99;
12 -- 100;
13 -- 14;
13 -- 15;
13 -- 17;
13 -- 19;
13 -- 20;
13 -- 21;
13 -- 22;
13 -- 24;
13 -- 26;
13 -- 27;
13 -- 29;
13 -- 31;
13 -- 32;
13 -- 33;
13 -- 34;
13 -- 35;
13 -- 36;
13 -- 38;
13 -- 40;
13 -- 41;
13 -- 42;
13 -- 46;
13 -- 47;
13 -- 49;
13 -- 50;
13 -- 52;
13 -- 53;
13 -- 54;
13 -- 56;
13 -- 57;
13 -- 58;
13 -- 60;
13 -- 62;
13 -- 63;
13 -- 64;
13 -- 69;
13 -- 71;
13 -- 73;
13 -- 74;
13 -- 75;
13 -- 76;
13 -- 78;
13 -- 79;
13 -- 81;
13 -- 83;
13 -- 84;
13 -- 86;
13 -- 87;
13 -- 90;
13 -- 91;
13 -- 92;
13 -- 93;
13 -- 94;
13 -- 95;
13 -- 96;
13 -- 98;
14 -- 15;
14 -- 16;
14 -- 18;
14 -- 21;
14 -- 22;
14 -- 28;
14 -- 29;
14 -- 30;
14 -- 31;
14 -- 35;
14 -- 38;
14 -- 39;
14 -- 41;
14 -- 42;
14 -- 43;
14 -- 44;
14 -- 46;
14 -- 47;
14 -- 48;
14 -- 49;
14 -- 51;
14 -- 53;
14 -- 54;
14 -- 55;
14 -- 57;
14 -- 58;
14 -- 59;
14 -- 60;
14 -- 62;
14 -- 64;
14 -- 65;
14 -- 66;
14 -- 67;
14 -- 68;
14 -- 69;
14 -- 71;
14 -- 73;
14 -- 76;
14 -- 78;
14 -- 79;
14 -- 80;
14 -- 81;
14 -- 82;
14 -- 84;
14 -- 85;
14 -- 86;
14 -- 87;
14 -- 88;
14 -- 89;
14 -- 91;
14 -- 96;
14 -- 98;
14 -- 100;
15 -- 16;
15 -- 17;
15 -- 19;
15 -- 25;
15 -- 28;
15 -- 30;
15 -- 31;
15 -- 32;
15 -- 33;
15 -- 37;
15 -- 38;
15 -- 39;
15 -- 41;
15 -- 42;
15 -- 43;
15 -- 44;
15 -- 45;
15 -- 46;
15 -- 50;
15 -- 54;
15 -- 58;
15 -- 60;
15 -- 63;
15 -- 64;
15 -- 67;
15 -- 68;
15 -- 71;
15 -- 72;
15 -- 74;
15 -- 79;
15 -- 80;
15 -- 81;
15 -- 84;
15 -- 87;
15 -- 89;
15 -- 90;
15 -- 91;
15 -- 94;
15 -- 95;
15 -- 96;
15 -- 97;
15 -- 98;
15 -- 99;
15 -- 100;
16 -- 17;
16 -- 20;
16 -- 21;
16 -- 22;
16 -- 24;
16 -- 25;
16 -- 27;
16 -- 28;
16 -- 29;
16 -- 30;
16 -- 31;
16 -- 35;
16 -- 36;
16 -- 37;
16 -- 39;
16 -- 42;
16 -- 43;
16 -- 45;
16 -- 47;
16 -- 48;
16 -- 50;
16 -- 52;
16 -- 53;
16 -- 54;
16 -- 55;
16 -- 57;
16 -- 59;
16 -- 61;
16 -- 64;
16 -- 66;
16 -- 67;
16 -- 68;
16 -- 69;
16 -- 70;
16 -- 72;
16 -- 74;
16 -- 75;
16 -- 76;
16 -- 77;
16 -- 80;
16 -- 81;
16 -- 82;
16 -- 83;
16 -- 84;
16 -- 85;
16 -- 87;
16 -- 88;
16 -- 90;
16 -- 91;
16 -- 92;
16 -- 94;
16 -- 95;
16 -- 97;
16 -- 100;
17 -- 18;
17 -- 20;
17 -- 21;
17 -- 22;
17 -- 23;
17 -- 24;
17 -- 25;
17 -- 31;
17 -- 33;
17 -- 34;
17 -- 35;
17 -- 37;
17 -- 40;
17 -- 41;
17 -- 45;
17 -- 46;
17 -- 47;
17 -- 48;
17 -- 49;
17 -- 50;
17 -- 51;
17 -- 53;
17 -- 55;
17 -- 56;
17 -- 57;
17 -- 58;
17 -- 62;
17 -- 67;
17 -- 68;
17 -- 75;
17 -- 78;
17 -- 80;
17 -- 84;
17 -- 86;
17 -- 87;
17 -- 88;
17 -- 91;
17 -- 92;
17 -- 93;
17 -- 94;
17 -- 95;
17 -- 97;
17 -- 98;
17 -- 99;
17 -- 100;
18 -- 19;
18 -- 20;
18 -- 22;
18 -- 23;
18 -- 25;
18 -- 26;
18 -- 29;
18 -- 30;
18 -- 31;
18 -- 32;
18 -- 33;
18 -- 34;
18 -- 37;
18 -- 38;
18 -- 40;
18 -- 43;
18 -- 44;
18 -- 47;
18 -- 48;
18 -- 50;
18 -- 53;
18 -- 54;
18 -- 55;
18 -- 56;
18 -- 60;
18 -- 61;
18 -- 62;
18 -- 63;
18 -- 65;
18 -- 66;
18 -- 67;
18 -- 70;
18 -- 71;
18 -- 72;
18 -- 73;
18 -- 74;
18 -- 76;
18 -- 77;
18 -- 78;
18 -- 79;
18 -- 82;
18 -- 87;
18 -- 88;
18 -- 89;
18 -- 90;
18 -- 91;
18 -- 92;
18 -- 93;
18 -- 95;
18 -- 97;
18 -- 99;
19 -- 20;
19 -- 21;
19 -- 22;
19 -- 23;
19 -- 24;
19 -- 26;
19 -- 27;
19 -- 28;
19 -- 29;
19 -- 30;
19 -- 31;
19 -- 33;
19 -- 34;
19 -- 36;
19 -- 37;
19 -- 38;
19 -- 39;
19 -- 40;
19 -- 41;
19 -- 43;
19 -- 44;
19 -- 45;
19 -- 46;
19 -- 47;
19 -- 50;
19 -- 51;
19 -- 52;
19 -- 53;
19 -- 56;
19 -- 57;
19 -- 58;
19 -- 59;
19 -- 61;
19 -- 67;
19 -- 68;
19 -- 69;
19 -- 73;
19 -- 74;
19 -- 75;
19 -- 76;
19 -- 78;
19 -- 79;
19 -- 81;
19 -- 82;
19 -- 83;
19 -- 84;
19 -- 85;
19 -- 86;
19 -- 87;
19 -- 90;
19 -- 91;
19 -- 96;
19 -- 97;
20 -- 21;
20 -- 23;
20 -- 25;
20 -- 27;
20 -- 30;
20 -- 31;
20 -- 32;
20 -- 33;
20 -- 34;
20 -- 35;
20 -- 39;
20 -- 41;
20 -- 42;
20 -- 43;
20 -- 44;
20 -- 46;
20 -- 47;
20 -- 49;
20 -- 50;
20 -- 52;
20 -- 53;
20 -- 54;
20 -- 56;
20 -- 58;
20 -- 59;
20 -- 60;
20 -- 61;
20 -- 63;
20 -- 64;
20 -- 65;
20 -- 66;
20 -- 68;
20 -- 74;
20 -- 77;
20 -- 79;
20 -- 81;
20 -- 82;
20 -- 84;
20 -- 86;
20 -- 87;
20 -- 88;
20 -- 90;
20 -- 92;
20 -- 95;
20 -- 96;
20 -- 97;
20 -- 98;
20 -- 99;
21 -- 22;
21 -- 23;
21 -- 24;
21 -- 25;
21 -- 28;
21 -- 30;
21 -- 31;
21 -- 32;
21 -- 34;
21 -- 36;
21 -- 38;
21 -- 39;
21 -- 40;
21 -- 45;
21 -- 48;
21 -- 49;
21 -- 52;
21 -- 55;
21 -- 56;
21 -- 58;
21 -- 59;
21 -- 61;
21 -- 62;
21 -- 64;
21 -- 66;
21 -- 68;
21 -- 70;
21 -- 71;
21 -- 72;
21 -- 74;
21 -- 75;
21 -- 77;
21 -- 78;
21 -- 80;
21 -- 82;
21 -- 84;
21 -- 86;
21 -- 87;
21 -- 89;
21 -- 91;
21 -- 100;
22 -- 23;
22 -- 27;
22 -- 28;
22 -- 29;
22 -- 30;
22 -- 31;
22 -- 35;
22 -- 36;
22 -- 37;
22 -- 38;
22 -- 39;
22 -- 40;
22 -- 42;
22 -- 45;
22 -- 47;
22 -- 48;
22 -- 49;
22 -- 51;
22 -- 52;
22 -- 53;
22 -- 59;
22 -- 62;
22 -- 63;
22 -- 64;
22 -- 65;
22 -- 66;
22 -- 69;
22 -- 71;
22 -- 73;
22 -- 75;
22 -- 79;
22 -- 80;
22 -- 82;
22 -- 85;
22 -- 86;
22 -- 87;
22 -- 89;
22 -- 90;
22 -- 91;
22 -- 98;
23 -- 24;
23 -- 26;
23 -- 27;
23 -- 28;
23 -- 29;
23 -- 30;
23 -- 31;
23 -- 32;
23 -- 33;
23 -- 34;
23 -- 36;
23 -- 37;
23 -- 44;
23 -- 46;
23 -- 47;
23 -- 48;
23 -- 52;
23 -- 53;
23 -- 60;
23 -- 63;
23 -- 64;
23 -- 65;
23 -- 66;
23 -- 67;
23 -- 69;
23 -- 70;
23 -- 71;
23 -- 73;
23 -- 74;
23 -- 77;
23 -- 78;
23 -- 79;
23 -- 85;
23 -- 86;
23 -- 87;
23 -- 89;
23 -- 90;
23 -- 92;
23 -- 93;
23 -- 95;
23 -- 97;
23 -- 98;
23 -- 99;
24 -- 25;
24 -- 28;
24 -- 29;
24 -- 30;
24 -- 35;
24 -- 36;
24 -- 37;
24 -- 40;
24 -- 42;
24 -- 43;
24 -- 47;
24 -- 48;
24 -- 49;
24 -- 50;
24 -- 51;
24 -- 52;
24 -- 54;
24 -- 55;
24 -- 59;
24 -- 61;
24 -- 62;
24 -- 64;
24 -- 65;
24 -- 67;
24 -- 68;
24 -- 69;
24 -- 71;
24 -- 72;
24 -- 73;
24 -- 74;
24 -- 75;
24 -- 76;
24 -- 78;
24 -- 79;
24 -- 82;
24 -- 83;
24 -- 86;
24 -- 89;
24 -- 91;
24 -- 92;
24 -- 93;
24 -- 94;
24 -- 96;
24 -- 97;
24 -- 98;
24 -- 100;
25 -- 26;
25 -- 29;
25 -- 30;
25 -- 31;
25 -- 34;
25 -- 35;
25 -- 36;
25 -- 38;
25 -- 39;
25 -- 43;
25 -- 45;
25 -- 46;
25 -- 48;
25 -- 49;
25 -- 50;
25 -- 52;
25 -- 56;
25 -- 58;
25 -- 59;
25 -- 60;
25 -- 62;
25 -- 65;
25 -- 66;
25 -- 68;
25 -- 70;
25 -- 71;
25 -- 72;
25 -- 73;
25 -- 74;
25 -- 75;
25 -- 79;
25 -- 80;
25 -- 81;
25 -- 83;
25 -- 87;
25 -- 89;
25 -- 91;
25 -- 92;
25 -- 93;
25 -- 95;
25 -- 97;
25 -- 98;
25 -- 99;
26 -- 27;
26 -- 29;
26 -- 30;
26 -- 31;
26 -- 32;
26 -- 34;
26 -- 35;
26 -- 36;
26 -- 37;
26 -- 38;
26 -- 40;
26 -- 41;
26 -- 42;
26 -- 44;
26 -- 45;
26 -- 47;
26 -- 48;
26 -- 49;
26 -- 51;
26 -- 52;
26 -- 53;
26 -- 54;
26 -- 56;
26 -- 58;
26 -- 59;
26 -- 60;
26 -- 62;
26 -- 63;
26 -- 64;
26 -- 67;
26 -- 68;
26 -- 69;
26 -- 70;
26 -- 72;
26 -- 73;
26 -- 76;
26 -- 77;
26 -- 79;
26 -- 82;
26 -- 83;
26 -- 84;
26 -- 85;
26 -- 86;
26 -- 87;
26 -- 88;
26 -- 89;
26 -- 90;
26 -- 92;
26 -- 95;
26 -- 96;
26 -- 97;
26 -- 98;
26 -- 100;
27 -- 28;
27 -- 31;
27 -- 32;
27 -- 34;
27 -- 36;
27 -- 37;
27 -- 39;
27 -- 42;
27 -- 44;
27 -- 49;
27 -- 53;
27 -- 54;
27 -- 55;
27 -- 58;
27 -- 59;
27 -- 61;
27 -- 63;
27 -- 65;
27 -- 68;
27 -- 69;
27 -- 72;
27 -- 75;
27 -- 76;
27 -- 77;
27 -- 79;
27 -- 81;
27 -- 83;
27 -- 84;
27 -- 85;
27 -- 86;
27 -- 88;
27 -- 91;
27 -- 93;
27 -- 95;
27 -- 96;
28 -- 29;
28 -- 31;
28 -- 32;
28 -- 34;
28 -- 35;
28 -- 37;
28 -- 38;
28 -- 40;
28 -- 41;
28 -- 42;
28 -- 43;
28 -- 47;
28 -- 48;
28 -- 49;
28 -- 50;
28 -- 51;
28 -- 53;
28 -- 54;
28 -- 56;
28 -- 57;
28 -- 58;
28 -- 59;
28 -- 60;
28 -- 61;
28 -- 62;
28 -- 67;
28 -- 68;
28 -- 69;
28 -- 70;
28 -- 71;
28 -- 73;
28 -- 75;
28 -- 76;
28 -- 78;
28 -- 79;
28 -- 81;
28 -- 82;
28 -- 83;
28 -- 84;
28 -- 85;
28 -- 87;
28 -- 89;
28 -- 92;
28 -- 93;
28 -- 94;
28 -- 96;
28 -- 97;
28 -- 98;
28 -- 99;
28 -- 100;
29 -- 30;
29 -- 31;
29 -- 32;
29 -- 33;
29 -- 34;
29 -- 35;
29 -- 36;
29 -- 37;
29 -- 38;
29 -- 39;
29 -- 40;
29 -- 41;
29 -- 43;
29 -- 45;
29 -- 46;
29 -- 47;
29 -- 49;
29 -- 52;
29 -- 55;
29 -- 58;
29 -- 59;
29 -- 61;
29 -- 62;
29 -- 63;
29 -- 64;
29 -- 67;
29 -- 68;
29 -- 69;
29 -- 71;
29 -- 73;
29 -- 74;
29 -- 75;
29 -- 76;
29 -- 77;
29 -- 78;
29 -- 79;
29 -- 81;
29 -- 82;
29 -- 83;
29 -- 84;
29 -- 86;
29 -- 89;
29 -- 90;
29 -- 91;
29 -- 92;
29 -- 93;
29 -- 97;
29 -- 98;
29 -- 100;
30 -- 31;
30 -- 33;
30 -- 34;
30 -- 37;
30 -- 38;
30 -- 39;
30 -- 42;
30 -- 44;
30 -- 45;
30 -- 48;
30 -- 50;
30 -- 53;
30 -- 54;
30 -- 55;
30 -- 57;
30 -- 58;
30 -- 59;
30 -- 60;
30 -- 61;
30 -- 62;
30 -- 63;
30 -- 64;
30 -- 65;
30 -- 67;
30 -- 68;
30 -- 69;
30 -- 71;
30 -- 73;
30 -- 74;
30 -- 77;
30 -- 78;
30 -- 79;
30 -- 81;
30 -- 83;
30 -- 84;
30 -- 85;
30 -- 86;
30 -- 87;
30 -- 88;
30 -- 89;
30 -- 92;
30 -- 95;
30 -- 98;
31 -- 32;
31 -- 33;
31 -- 34;
31 -- 35;
31 -- 37;
31 -- 38;
31 -- 39;
31 -- 40;
31 -- 41;
31 -- 44;
31 -- 45;
31 -- 47;
31 -- 49;
31 -- 50;
31 -- 52;
31 -- 53;
31 -- 55;
31 -- 56;
31 -- 58;
31 -- 60;
31 -- 61;
31 -- 62;
31 -- 63;
31 -- 64;
31 -- 66;
31 -- 67;
31 -- 69;
31 -- 70;
31 -- 73;
31 -- 74;
31 -- 76;
31 -- 77;
31 -- 78;
31 -- 79;
31 -- 80;
31 -- 85;
31 -- 87;
31 -- 88;
31 -- 90;
31 -- 92;
31 -- 96;
31 -- 97;
31 -- 100;
32 -- 33;
32 -- 36;
32 -- 38;
32 -- 39;
32 -- 41;
32 -- 42;
32 -- 43;
32 -- 45;
32 -- 46;
32 -- 47;
32 -- 49;
32 -- 51;
32 -- 53;
32 -- 56;
32 -- 58;
32 -- 59;
32 -- 61;
32 -- 64;
32 -- 65;
32 -- 66;
32 -- 67;
32 -- 71;
32 -- 72;
32 -- 73;
32 -- 74;
32 -- 75;
32 -- 76;
32 -- 77;
32 -- 80;
32 -- 81;
32 -- 82;
32 -- 86;
32 -- 87;
32 -- 91;
32 -- 94;
32 -- 95;
32 -- 97;
32 -- 98;
32 -- 100;
33 -- 34;
33 -- 35;
33 -- 36;
33 -- 37;
33 -- 38;
33 -- 39;
33 -- 44;
33 -- 45;
33 -- 48;
33 -- 49;
33 -- 50;
33 -- 51;
33 -- 52;
33 -- 55;
33 -- 58;
33 -- 60;
33 -- 61;
33 -- 62;
33 -- 63;
33 -- 64;
33 -- 67;
33 -- 68;
33 -- 70;
33 -- 71;
33 -- 73;
33 -- 74;
33 -- 76;
33 -- 79;
33 -- 80;
33 -- 81;
33 -- 84;
33 -- 85;
33 -- 88;
33 -- 91;
33 -- 92;
33 -- 94;
33 -- 96;
33 -- 97;
33 -- 99;
33 -- 100;
34 -- 35;
34 -- 37;
34 -- 39;
34 -- 40;
34 -- 41;
34 -- 42;
34 -- 45;
34 -- 46;
34 -- 48;
34 -- 49;
34 -- 54;
34 -- 55;
34 -- 56;
34 -- 57;
34 -- 58;
34 -- 60;
34 -- 62;
34 -- 63;
34 -- 65;
34 -- 67;
34 -- 68;
34 -- 69;
34 -- 71;
34 -- 72;
34 -- 73;
34 -- 78;
34 -- 79;
34 -- 82;
34 -- 83;
34 -- 84;
34 -- 85;
34 -- 86;
34 -- 87;
34 -- 88;
34 -- 90;
34 -- 91;
34 -- 93;
34 -- 96;
34 -- 97;
34 -- 98;
34 -- 99;
34 -- 100;
35 -- 36;
35 -- 38;
35 -- 40;
35 -- 41;
35 -- 43;
35 -- 45;
35 -- 46;
35 -- 48;
35 -- 50;
35 -- 53;
35 -- 54;
35 -- 56;
35 -- 57;
35 -- 58;
35 -- 59;
35 -- 60;
35 -- 61;
35 -- 62;
35 -- 63;
35 -- 65;
35 -- 67;
35 -- 69;
35 -- 71;
35 -- 72;
35 -- 74;
35 -- 77;
35 -- 79;
35 -- 80;
35 -- 82;
35 -- 86;
35 -- 88;
35 -- 91;
35 -- 93;
35 -- 95;
35 -- 96;
35 -- 97;
35 -- 98;
35 -- 100;
36 -- 37;
36 -- 38;
36 -- 44;
36 -- 45;
36 -- 48;
36 -- 50;
36 -- 52;
36 -- 54;
36 -- 56;
36 -- 57;
36 -- 59;
36 -- 61;
36 -- 62;
36 -- 63;
36 -- 67;
36 -- 68;
36 -- 71;
36 -- 72;
36 -- 75;
36 -- 76;
36 -- 78;
36 -- 79;
36 -- 81;
36 -- 82;
36 -- 83;
36 -- 86;
36 -- 87;
36 -- 89;
36 -- 92;
36 -- 93;
36 -- 94;
36 -- 95;
36 -- 96;
36 -- 97;
36 -- 98;
36 -- 99;
36 -- 100;
37 -- 38;
37 -- 39;
37 -- 40;
37 -- 41;
37 -- 42;
37 -- 43;
37 -- 46;
37 -- 47;
37 -- 48;
37 -- 50;
37 -- 51;
37 -- 52;
37 -- 53;
37 -- 56;
37 -- 57;
37 -- 58;
37 -- 59;
37 -- 60;
37 -- 61;
37 -- 63;
37 -- 64;
37 -- 65;
37 -- 66;
37 -- 67;
37 -- 69;
37 -- 71;
37 -- 73;
37 -- 74;
37 -- 78;
37 -- 79;
37 -- 80;
37 -- 82;
37 -- 84;
37 -- 85;
37 -- 86;
37 -- 88;
37 -- 89;
37 -- 90;
37 -- 92;
37 -- 93;
37 -- 94;
37 -- 96;
37 -- 97;
37 -- 99;
38 -- 39;
38 -- 40;
38 -- 44;
38 -- 47;
38 -- 49;
38 -- 51;
38 -- 52;
38 -- 53;
38 -- 55;
38 -- 57;
38 -- 58;
38 -- 59;
38 -- 60;
38 -- 61;
38 -- 62;
38 -- 63;
38 -- 64;
38 -- 65;
38 -- 66;
38 -- 68;
38 -- 71;
38 -- 72;
38 -- 73;
38 -- 76;
38 -- 77;
38 -- 78;
38 -- 79;
38 -- 80;
38 -- 82;
38 -- 83;
38 -- 85;
38 -- 86;
38 -- 87;
38 -- 89;
38 -- 92;
38 -- 93;
38 -- 94;
38 -- 98;
38 -- 99;
38 -- 100;
39 -- 40;
39 -- 42;
39 -- 43;
39 -- 44;
39 -- 45;
39 -- 47;
39 -- 48;
39 -- 49;
39 -- 51;
39 -- 52;
39 -- 53;
39 -- 54;
39 -- 56;
39 -- 57;
39 -- 58;
39 -- 60;
39 -- 62;
39 -- 65;
39 -- 67;
39 -- 69;
39 -- 70;
39 -- 71;
39 -- 73;
39 -- 76;
39 -- 78;
39 -- 79;
39 -- 81;
39 -- 82;
39 -- 83;
39 -- 84;
39 -- 85;
39 -- 86;
39 -- 87;
39 -- 89;
39 -- 91;
39 -- 92;
39 -- 93;
39 -- 96;
39 -- 97;
39 -- 98;
39 -- 99;
40 -- 41;
40 -- 44;
40 -- 47;
40 -- 51;
40 -- 54;
40 -- 55;
40 -- 56;
40 -- 57;
40 -- 58;
40 -- 63;
40 -- 66;
40 -- 67;
40 -- 70;
40 -- 72;
40 -- 73;
40 -- 74;
40 -- 76;
40 -- 77;
40 -- 78;
40 -- 81;
40 -- 84;
40 -- 85;
40 -- 86;
40 -- 87;
40 -- 88;
40 -- 92;
40 -- 94;
40 -- 96;
41 -- 42;
41 -- 43;
41 -- 44;
41 -- 45;
41 -- 46;
41 -- 48;
41 -- 49;
41 -- 51;
41 -- 52;
41 -- 53;
41 -- 57;
41 -- 58;
41 -- 59;
41 -- 60;
41 -- 61;
41 -- 62;
41 -- 65;
41 -- 66;
41 -- 68;
41 -- 69;
41 -- 71;
41 -- 72;
41 -- 74;
41 -- 76;
41 -- 77;
41 -- 78;
41 -- 79;
41 -- 80;
41 -- 81;
41 -- 82;
41 -- 83;
41 -- 84;
41 -- 85;
41 -- 86;
41 -- 87;
41 -- 91;
41 -- 92;
41 -- 94;
41 -- 95;
41 -- 97;
41 -- 98;
41 -- 99;
41 -- 100;
42 -- 43;
42 -- 44;
42 -- 45;
42 -- 49;
42 -- 56;
42 -- 58;
42 -- 60;
42 -- 62;
42 -- 63;
42 -- 64;
42 -- 65;
42 -- 67;
42 -- 68;
42 -- 70;
42 -- 71;
42 -- 73;
42 -- 76;
42 -- 77;
42 -- 78;
42 -- 81;
42 -- 83;
42 -- 84;
42 -- 86;
42 -- 87;
42 -- 90;
42 -- 92;
42 -- 93;
42 -- 94;
42 -- 95;
42 -- 96;
42 -- 98;
42 -- 100;
43 -- 44;
43 -- 45;
43 -- 47;
43 -- 48;
43 -- 49;
43 -- 50;
43 -- 51;
43 -- 52;
43 -- 53;
43 -- 54;
43 -- 56;
43 -- 58;
43 -- 59;
43 -- 61;
43 -- 63;
43 -- 64;
43 -- 67;
43 -- 68;
43 -- 69;
43 -- 71;
43 -- 72;
43 -- 74;
43 -- 75;
43 -- 76;
43 -- 79;
43 -- 81;
43 -- 82;
43 -- 85;
43 -- 86;
43 -- 87;
43 -- 90;
43 -- 92;
43 -- 93;
43 -- 94;
43 -- 96;
43 -- 97;
43 -- 99;
43 -- 100;
44 -- 45;
44 -- 46;
44 -- 47;
44 -- 48;
44 -- 49;
44 -- 55;
44 -- 57;
44 -- 58;
44 -- 59;
44 -- 60;
44 -- 62;
44 -- 63;
44 -- 64;
44 -- 67;
44 -- 68;
44 -- 69;
44 -- 72;
44 -- 73;
44 -- 75;
44 -- 76;
44 -- 77;
44 -- 78;
44 -- 80;
44 -- 81;
44 -- 82;
44 -- 84;
44 -- 85;
44 -- 86;
44 -- 88;
44 -- 90;
44 -- 91;
44 -- 93;
44 -- 96;
44 -- 98;
44 -- 100;
45 -- 46;
45 -- 47;
45 -- 49;
45 -- 50;
45 -- 51;
45 -- 52;
45 -- 53;
45 -- 54;
45 -- 56;
45 -- 57;
45 -- 58;
45 -- 61;
45 -- 65;
45 -- 69;
45 -- 70;
45 -- 71;
45 -- 73;
45 -- 74;
45 -- 75;
45 -- 78;
45 -- 80;
45 -- 83;
45 -- 84;
45 -- 86;
45 -- 88;
45 -- 90;
45 -- 91;
45 -- 92;
45 -- 93;
45 -- 94;
45 -- 97;
45 -- 98;
45 -- 99;
46 -- 47;
46 -- 50;
46 -- 51;
46 -- 52;
46 -- 53;
46 -- 54;
46 -- 55;
46 -- 56;
46 -- 57;
46 -- 58;
46 -- 59;
46 -- 60;
46 -- 61;
46 -- 62;
46 -- 63;
46 -- 66;
46 -- 68;
46 -- 70;
46 -- 71;
46 -- 73;
46 -- 76;
46 -- 77;
46 -- 78;
46 -- 79;
46 -- 81;
46 -- 82;
46 -- 84;
46 -- 86;
46 -- 87;
46 -- 88;
46 -- 90;
46 -- 95;
46 -- 96;
46 -- 97;
46 -- 98;
46 -- 99;
47 -- 48;
47 -- 49;
47 -- 51;
47 -- 52;
47 -- 53;
47 -- 54;
47 -- 60;
47 -- 61;
47 -- 62;
47 -- 63;
47 -- 64;
47 -- 65;
47 -- 66;
47 -- 67;
47 -- 69;
47 -- 70;
47 -- 72;
47 -- 73;
47 -- 75;
47 -- 76;
47 -- 82;
47 -- 83;
47 -- 84;
47 -- 85;
47 -- 86;
47 -- 90;
47 -- 94;
47 -- 96;
47 -- 97;
47 -- 99;
47 -- 100;
48 -- 49;
48 -- 51;
48 -- 54;
48 -- 55;
48 -- 56;
48 -- 58;
48 -- 59;
48 -- 61;
48 -- 62;
48 -- 63;
48 -- 64;
48 -- 65;
48 -- 68;
48 -- 70;
48 -- 71;
48 -- 73;
48 -- 74;
48 -- 76;
48 -- 77;
48 -- 78;
48 -- 79;
48 -- 80;
48 -- 81;
48 -- 82;
48 -- 83;
48 -- 86;
48 -- 87;
48 -- 94;
48 -- 95;
48 -- 96;
48 -- 97;
48 -- 98;
48 -- 99;
48 -- 100;
49 -- 50;
49 -- 54;
49 -- 55;
49 -- 56;
49 -- 58;
49 -- 59;
49 -- 60;
49 -- 61;
49 -- 62;
49 -- 64;
49 -- 67;
49 -- 69;
49 -- 72;
49 -- 73;
49 -- 74;
49 -- 75;
49 -- 78;
49 -- 79;
49 -- 80;
49 -- 82;
49 -- 83;
49 -- 84;
49 -- 85;
49 -- 87;
49 -- 90;
49 -- 91;
49 -- 92;
49 -- 93;
49 -- 96;
49 -- 97;
49 -- 98;
49 -- 99;
49 -- 100;
50 -- 51;
50 -- 52;
50 -- 54;
50 -- 55;
50 -- 60;
50 -- 61;
50 -- 64;
50 -- 66;
50 -- 69;
50 -- 73;
50 -- 74;
50 -- 75;
50 -- 76;
50 -- 77;
50 -- 79;
50 -- 81;
50 -- 82;
50 -- 83;
50 -- 84;
50 -- 86;
50 -- 88;
50 -- 89;
50 -- 90;
50 -- 94;
50 -- 95;
50 -- 97;
50 -- 98;
50 -- 99;
50 -- 100;
51 -- 52;
51 -- 54;
51 -- 55;
51 -- 57;
51 -- 60;
51 -- 62;
51 -- 66;
51 -- 67;
51 -- 68;
51 -- 69;
51 -- 76;
51 -- 77;
51 -- 78;
51 -- 79;
51 -- 81;
51 -- 82;
51 -- 85;
51 -- 87;
51 -- 88;
51 -- 89;
51 -- 91;
51 -- 92;
51 -- 95;
51 -- 99;
52 -- 53;
52 -- 54;
52 -- 56;
52 -- 57;
52 -- 58;
52 -- 60;
52 -- 61;
52 -- 62;
52 -- 63;
52 -- 64;
52 -- 65;
52 -- 66;
52 -- 68;
52 -- 69;
52 -- 71;
52 -- 72;
52 -- 73;
52 -- 74;
52 -- 75;
52 -- 77;
52 -- 78;
52 -- 81;
52 -- 84;
52 -- 85;
52 -- 87;
52 -- 89;
52 -- 90;
52 -- 91;
52 -- 92;
52 -- 94;
52 -- 95;
52 -- 99;
52 -- 100;
53 -- 54;
53 -- 55;
53 -- 57;
53 -- 59;
53 -- 60;
53 -- 62;
53 -- 63;
53 -- 64;
53 -- 65;
53 -- 66;
53 -- 71;
53 -- 72;
53 -- 73;
53 -- 74;
53 -- 75;
53 -- 76;
53 -- 77;
53 -- 81;
53 -- 83;
53 -- 85;
53 -- 86;
53 -- 88;
53 -- 89;
53 -- 91;
53 -- 93;
53 -- 95;
53 -- 96;
53 -- 100;
54 -- 55;
54 -- 56;
54 -- 57;
54 -- 58;
54 -- 60;
54 -- 61;
54 -- 66;
54 -- 67;
54 -- 68;
54 -- 69;
54 -- 71;
54 -- 75;
54 -- 76;
54 -- 77;
54 -- 78;
54 -- 79;
54 -- 81;
54 -- 83;
54 -- 84;
54 -- 85;
54 -- 89;
54 -- 91;
54 -- 92;
54 -- 93;
54 -- 94;
54 -- 95;
54 -- 97;
54 -- 100;
55 -- 56;
55 -- 57;
55 -- 58;
55 -- 59;
55 -- 61;
55 -- 62;
55 -- 64;
55 -- 65;
55 -- 69;
55 -- 70;
55 -- 71;
55 -- 72;
55 -- 73;
55 -- 74;
55 -- 76;
55 -- 78;
55 -- 79;
55 -- 80;
55 -- 82;
55 -- 84;
55 -- 87;
55 -- 90;
55 -- 91;
55 -- 95;
55 -- 97;
55 -- 100;
56 -- 57;
56 -- 59;
56 -- 60;
56 -- 61;
56 -- 62;
56 -- 63;
56 -- 64;
56 -- 66;
56 -- 69;
56 -- 70;
56 -- 71;
56 -- 72;
56 -- 73;
56 -- 76;
56 -- 77;
56 -- 78;
56 -- 81;
56 -- 82;
56 -- 83;
56 -- 87;
56 -- 88;
56 -- 90;
56 -- 91;
56 -- 92;
56 -- 93;
56 -- 94;
56 -- 96;
56 -- 99;
56 -- 100;
57 -- 58;
57 -- 60;
57 -- 62;
57 -- 63;
57 -- 64;
57 -- 65;
57 -- 67;
57 -- 68;
57 -- 69;
57 -- 72;
57 -- 73;
57 -- 74;
57 -- 81;
57 -- 82;
57 -- 84;
57 -- 85;
57 -- 86;
57 -- 87;
57 -- 90;
57 -- 91;
57 -- 92;
57 -- 93;
57 -- 96;
57 -- 97;
57 -- 98;
57 -- 99;
57 -- 100;
58 -- 59;
58 -- 60;
58 -- 64;
58 -- 65;
58 -- 66;
58 -- 70;
58 -- 72;
58 -- 73;
58 -- 75;
58 -- 79;
58 -- 80;
58 -- 81;
58 -- 82;
58 -- 85;
58 -- 87;
58 -- 88;
58 -- 89;
58 -- 90;
58 -- 94;
58 -- 95;
58 -- 98;
58 -- 100;
59 -- 60;
59 -- 65;
59 -- 66;
59 -- 68;
59 -- 71;
59 -- 74;
59 -- 75;
59 -- 76;
59 -- 77;
59 -- 80;
59 -- 81;
59 -- 82;
59 -- 83;
59 -- 85;
59 -- 86;
59 -- 87;
59 -- 88;
59 -- 89;
59 -- 91;
59 -- 94;
59 -- 95;
59 -- 97;
60 -- 61;
60 -- 63;
60 -- 68;
60 -- 70;
60 -- 73;
60 -- 74;
60 -- 76;
60 -- 77;
60 -- 78;
60 -- 85;
60 -- 87;
60 -- 88;
60 -- 89;
60 -- 92;
60 -- 95;
60 -- 96;
60 -- 97;
60 -- 99;
60 -- 100;
61 -- 62;
61 -- 63;
61 -- 64;
61 -- 65;
61 -- 66;
61 -- 68;
61 -- 69;
61 -- 72;
61 -- 73;
61 -- 75;
61 -- 76;
61 -- 78;
61 -- 79;
61 -- 80;
61 -- 81;
61 -- 82;
61 -- 83;
61 -- 84;
61 -- 85;
61 -- 86;
61 -- 87;
61 -- 89;
61 -- 93;
61 -- 95;
61 -- 97;
61 -- 98;
61 -- 100;
62 -- 63;
62 -- 64;
62 -- 66;
62 -- 67;
62 -- 68;
62 -- 70;
62 -- 71;
62 -- 72;
62 -- 73;
62 -- 78;
62 -- 81;
62 -- 82;
62 -- 83;
62 -- 85;
62 -- 86;
62 -- 87;
62 -- 88;
62 -- 89;
62 -- 92;
62 -- 93;
62 -- 98;
63 -- 64;
63 -- 65;
63 -- 66;
63 -- 68;
63 -- 70;
63 -- 74;
63 -- 75;
63 -- 76;
63 -- 77;
63 -- 78;
63 -- 79;
63 -- 80;
63 -- 82;
63 -- 86;
63 -- 87;
63 -- 88;
63 -- 89;
63 -- 90;
63 -- 91;
63 -- 93;
63 -- 94;
63 -- 97;
64 -- 65;
64 -- 66;
64 -- 67;
64 -- 69;
64 -- 70;
64 -- 71;
64 -- 72;
64 -- 73;
64 -- 75;
64 -- 77;
64 -- 78;
64 -- 79;
64 -- 82;
64 -- 85;
64 -- 87;
64 -- 88;
64 -- 90;
64 -- 94;
64 -- 95;
64 -- 98;
64 -- 99;
64 -- 100;
65 -- 66;
65 -- 67;
65 -- 68;
65 -- 69;
65 -- 70;
65 -- 71;
65 -- 72;
65 -- 73;
65 -- 75;
65 -- 76;
65 -- 77;
65 -- 78;
65 -- 80;
65 -- 81;
65 -- 83;
65 -- 84;
65 -- 86;
65 -- 87;
65 -- 89;
65 -- 90;
65 -- 92;
65 -- 93;
65 -- 95;
65 -- 97;
65 -- 99;
66 -- 67;
66 -- 69;
66 -- 71;
66 -- 72;
66 -- 74;
66 -- 75;
66 -- 76;
66 -- 77;
66 -- 79;
66 -- 80;
66 -- 81;
66 -- 83;
66 -- 84;
66 -- 86;
66 -- 87;
66 -- 88;
66 -- 89;
66 -- 90;
66 -- 91;
66 -- 92;
66 -- 94;
66 -- 95;
66 -- 97;
66 -- 100;
67 -- 68;
67 -- 69;
67 -- 71;
67 -- 72;
67 -- 73;
67 -- 74;
67 -- 77;
67 -- 78;
67 -- 79;
67 -- 80;
67 -- 81;
67 -- 82;
67 -- 84;
67 -- 85;
67 -- 86;
67 -- 87;
67 -- 88;
67 -- 89;
67 -- 90;
67 -- 91;
67 -- 94;
67 -- 95;
67 -- 96;
67 -- 97;
67 -- 98;
67 -- 100;
68 -- 69;
68 -- 70;
68 -- 72;
68 -- 73;
68 -- 76;
68 -- 78;
68 -- 80;
68 -- 83;
68 -- 85;
68 -- 88;
68 -- 89;
68 -- 90;
68 -- 91;
68 -- 95;
68 -- 96;
68 -- 97;
68 -- 98;
68 -- 100;
69 -- 70;
69 -- 73;
69 -- 75;
69 -- 76;
69 -- 77;
69 -- 78;
69 -- 81;
69 -- 82;
69 -- 83;
69 -- 85;
69 -- 86;
69 -- 87;
69 -- 88;
69 -- 90;
69 -- 92;
69 -- 95;
69 -- 96;
69 -- 99;
70 -- 71;
70 -- 73;
70 -- 75;
70 -- 76;
70 -- 77;
70 -- 81;
70 -- 82;
70 -- 83;
70 -- 84;
70 -- 85;
70 -- 86;
70 -- 90;
70 -- 91;
70 -- 94;
70 -- 95;
70 -- 96;
70 -- 98;
70 -- 99;
70 -- 100;
71 -- 72;
71 -- 73;
71 -- 75;
71 -- 76;
71 -- 78;
71 -- 79;
71 -- 81;
71 -- 83;
71 -- 85;
71 -- 86;
71 -- 87;
71 -- 90;
71 -- 91;
71 -- 92;
71 -- 93;
71 -- 96;
71 -- 98;
71 -- 99;
71 -- 100;
72 -- 73;
72 -- 78;
72 -- 81;
72 -- 83;
72 -- 84;
72 -- 85;
72 -- 86;
72 -- 87;
72 -- 88;
72 -- 90;
72 -- 91;
72 -- 92;
72 -- 93;
72 -- 94;
72 -- 95;
72 -- 97;
72 -- 98;
72 -- 99;
73 -- 74;
73 -- 77;
73 -- 78;
73 -- 85;
73 -- 86;
73 -- 88;
73 -- 89;
73 -- 92;
73 -- 93;
73 -- 94;
73 -- 95;
73 -- 98;
74 -- 75;
74 -- 76;
74 -- 77;
74 -- 78;
74 -- 79;
74 -- 80;
74 -- 81;
74 -- 83;
74 -- 84;
74 -- 86;
74 -- 87;
74 -- 88;
74 -- 90;
74 -- 93;
74 -- 94;
74 -- 95;
74 -- 96;
74 -- 97;
74 -- 98;
74 -- 99;
74 -- 100;
75 -- 76;
75 -- 79;
75 -- 80;
75 -- 83;
75 -- 84;
75 -- 86;
75 -- 87;
75 -- 88;
75 -- 90;
75 -- 91;
75 -- 92;
75 -- 93;
75 -- 94;
75 -- 95;
75 -- 96;
75 -- 97;
75 -- 98;
76 -- 77;
76 -- 78;
76 -- 81;
76 -- 83;
76 -- 86;
76 -- 88;
76 -- 89;
76 -- 91;
76 -- 92;
76 -- 93;
76 -- 94;
76 -- 99;
76 -- 100;
77 -- 78;
77 -- 80;
77 -- 83;
77 -- 84;
77 -- 86;
77 -- 87;
77 -- 88;
77 -- 89;
77 -- 91;
77 -- 92;
77 -- 93;
77 -- 99;
77 -- 100;
78 -- 79;
78 -- 80;
78 -- 81;
78 -- 83;
78 -- 84;
78 -- 85;
78 -- 86;
78 -- 88;
78 -- 89;
78 -- 90;
78 -- 94;
78 -- 95;
78 -- 97;
78 -- 98;
78 -- 99;
79 -- 80;
79 -- 82;
79 -- 83;
79 -- 84;
79 -- 86;
79 -- 89;
79 -- 91;
79 -- 92;
79 -- 94;
79 -- 95;
79 -- 96;
79 -- 97;
79 -- 99;
79 -- 100;
80 -- 81;
80 -- 82;
80 -- 85;
80 -- 86;
80 -- 87;
80 -- 88;
80 -- 89;
80 -- 91;
80 -- 92;
80 -- 93;
80 -- 94;
80 -- 97;
80 -- 98;
81 -- 82;
81 -- 83;
81 -- 84;
81 -- 85;
81 -- 86;
81 -- 88;
81 -- 89;
81 -- 90;
81 -- 92;
81 -- 93;
81 -- 95;
81 -- 96;
81 -- 97;
81 -- 98;
82 -- 83;
82 -- 84;
82 -- 85;
82 -- 86;
82 -- 87;
82 -- 88;
82 -- 89;
82 -- 90;
82 -- 91;
82 -- 92;
82 -- 93;
82 -- 96;
82 -- 97;
82 -- 98;
82 -- 99;
82 -- 100;
83 -- 84;
83 -- 85;
83 -- 86;
83 -- 87;
83 -- 88;
83 -- 92;
83 -- 95;
83 -- 96;
83 -- 97;
83 -- 100;
84 -- 85;
84 -- 86;
84 -- 87;
84 -- 89;
84 -- 91;
84 -- 95;
84 -- 96;
84 -- 97;
84 -- 99;
85 -- 86;
85 -- 87;
85 -- 90;
85 -- 91;
85 -- 94;
85 -- 97;
86 -- 87;
86 -- 88;
86 -- 89;
86 -- 90;
86 -- 91;
86 -- 93;
86 -- 98;
86 -- 99;
87 -- 88;
87 -- 89;
87 -- 90;
87 -- 91;
87 -- 93;
87 -- 95;
87 -- 96;
87 -- 97;
87 -- 100;
88 -- 89;
88 -- 90;
88 -- 91;
88 -- 92;
88 -- 93;
88 -- 94;
88 -- 95;
88 -- 99;
88 -- 100;
89 -- 90;
89 -- 91;
89 -- 92;
89 -- 93;
89 -- 96;
89 -- 100;
90 -- 91;
90 -- 92;
90 -- 95;
90 -- 97;
91 -- 92;
91 -- 93;
91 -- 94;
91 -- 97;
91 -- 98;
91 -- 99;
92 -- 93;
92 -- 94;
92 -- 96;
92 -- 98;
92 -- 99;
93 -- 94;
93 -- 95;
93 -- 96;
93 -- 98;
93 -- 100;
94 -- 95;
94 -- 96;
94 -- 99;
94 -- 100;
95 -- 96;
95 -- 99;
95 -- 100;
96 -- 97;
96 -- 98;
96 -- 99;
96 -- 100;
97 -- 98;
97 -- 100;
98 -- 99;
99 -- 100;


}
