
graph ErdosReny {
33 -- 352;
133 -- 160;
212 -- 446;
198 -- 252;
451 -- 278;
480 -- 94;
20 -- 173;
134 -- 297;
144 -- 304;
57 -- 232;
47 -- 254;
336 -- 111;
209 -- 222;
217 -- 152;
234 -- 176;
289 -- 59;
118 -- 256;
159 -- 371;
36 -- 470;
238 -- 492;
142 -- 302;
92 -- 278;
204 -- 25;
84 -- 406;
439 -- 261;
204 -- 476;
105 -- 367;
144 -- 170;
273 -- 74;
439 -- 281;
440 -- 219;
171 -- 297;
19 -- 276;
288 -- 114;
433 -- 298;
111 -- 206;
78 -- 228;
124 -- 331;
34 -- 409;
303 -- 206;
31 -- 130;
456 -- 54;
301 -- 426;
38 -- 232;
396 -- 26;
418 -- 471;
326 -- 5;
227 -- 388;
436 -- 357;
32 -- 176;
202 -- 321;
350 -- 129;
406 -- 52;
129 -- 259;
212 -- 310;
310 -- 489;
113 -- 149;
305 -- 313;
32 -- 66;
156 -- 37;
370 -- 315;
372 -- 163;
126 -- 250;
102 -- 32;
328 -- 403;
259 -- 281;
87 -- 39;
365 -- 198;
486 -- 73;
396 -- 80;
124 -- 347;
45 -- 63;
88 -- 47;
110 -- 269;
204 -- 351;
336 -- 483;
250 -- 443;
123 -- 9;
86 -- 149;
235 -- 88;
255 -- 183;
56 -- 281;
76 -- 321;
59 -- 457;
319 -- 57;
372 -- 289;
401 -- 313;
56 -- 415;
301 -- 316;
408 -- 330;
403 -- 230;
397 -- 280;
449 -- 170;
116 -- 362;
68 -- 454;
314 -- 233;
378 -- 291;
348 -- 268;
165 -- 242;
244 -- 137;
405 -- 418;
72 -- 71;
18 -- 419;
336 -- 290;
447 -- 256;
367 -- 373;
75 -- 334;
60 -- 272;
2 -- 346;
271 -- 409;
2 -- 174;
435 -- 71;
125 -- 316;
275 -- 319;
314 -- 238;
217 -- 195;
431 -- 113;
479 -- 48;
377 -- 489;
336 -- 448;
495 -- 427;
231 -- 44;
290 -- 4;
323 -- 197;
42 -- 298;
192 -- 98;
143 -- 332;
299 -- 302;
447 -- 153;
177 -- 156;
107 -- 22;
288 -- 279;
41 -- 275;
226 -- 217;
465 -- 344;
96 -- 152;
396 -- 73;
4 -- 13;
142 -- 99;
328 -- 61;
57 -- 50;
366 -- 265;
299 -- 72;
97 -- 309;
392 -- 172;
433 -- 357;
68 -- 13;
447 -- 448;
284 -- 418;
177 -- 403;
245 -- 387;
329 -- 415;
87 -- 250;
345 -- 407;
345 -- 311;
383 -- 172;
297 -- 393;
442 -- 402;
393 -- 139;
249 -- 304;
394 -- 84;
260 -- 213;
273 -- 92;
490 -- 235;
436 -- 251;
479 -- 61;
299 -- 443;
190 -- 340;
484 -- 369;
391 -- 494;
262 -- 157;
210 -- 416;
421 -- 361;
68 -- 426;
83 -- 17;
351 -- 245;
298 -- 200;
159 -- 248;
471 -- 422;
412 -- 344;
468 -- 238;
170 -- 403;
426 -- 331;
43 -- 20;
338 -- 412;
322 -- 146;
124 -- 188;
479 -- 103;
331 -- 476;
12 -- 47;
304 -- 72;
472 -- 338;
6 -- 418;
335 -- 134;
200 -- 371;
457 -- 450;
21 -- 318;
356 -- 277;
242 -- 100;
356 -- 67;
461 -- 349;
338 -- 155;
49 -- 33;
289 -- 17;
403 -- 315;
161 -- 71;
280 -- 215;
455 -- 139;
386 -- 176;
3 -- 56;
253 -- 376;
425 -- 290;
186 -- 349;
398 -- 143;
259 -- 108;
498 -- 421;
402 -- 477;
363 -- 74;
472 -- 287;
52 -- 108;
414 -- 198;
45 -- 109;
315 -- 51;
72 -- 38;
222 -- 183;
317 -- 436;
358 -- 253;
44 -- 440;
92 -- 326;
463 -- 382;
140 -- 194;
72 -- 273;
453 -- 17;
44 -- 109;
257 -- 399;
405 -- 205;
200 -- 246;
230 -- 333;
341 -- 82;
480 -- 417;
216 -- 284;
394 -- 116;
500 -- 376;
343 -- 347;
38 -- 144;
81 -- 288;
203 -- 499;
98 -- 120;
385 -- 175;
410 -- 102;
407 -- 312;
107 -- 375;
428 -- 304;
337 -- 423;
453 -- 24;
486 -- 468;
439 -- 89;
302 -- 371;
385 -- 443;
197 -- 92;
249 -- 237;
326 -- 87;
35 -- 93;
213 -- 97;
74 -- 276;
153 -- 92;
340 -- 474;
138 -- 252;
175 -- 95;
97 -- 459;
445 -- 367;
306 -- 425;
137 -- 439;
1 -- 345;
34 -- 226;
62 -- 159;
65 -- 391;
395 -- 206;
8 -- 288;
491 -- 369;
134 -- 148;
68 -- 79;
39 -- 382;
227 -- 493;
244 -- 226;
416 -- 66;
436 -- 278;
189 -- 457;
362 -- 294;
239 -- 290;
404 -- 112;
199 -- 379;
249 -- 115;
424 -- 457;
78 -- 59;
33 -- 172;
456 -- 43;
316 -- 382;
475 -- 277;
328 -- 55;
150 -- 18;
229 -- 15;
487 -- 489;
211 -- 234;
313 -- 253;
375 -- 297;
497 -- 461;
285 -- 73;
49 -- 206;
378 -- 333;
468 -- 64;
78 -- 277;
35 -- 237;
371 -- 138;
150 -- 107;
258 -- 245;
180 -- 329;
352 -- 457;
139 -- 130;
214 -- 238;
134 -- 442;
98 -- 388;
154 -- 449;
221 -- 200;
237 -- 466;
181 -- 45;
408 -- 181;
412 -- 128;
500 -- 381;
140 -- 330;
82 -- 382;
434 -- 10;
60 -- 315;
482 -- 368;
47 -- 308;
320 -- 465;
24 -- 222;
145 -- 369;
332 -- 267;
129 -- 72;
211 -- 326;
285 -- 16;
117 -- 285;
371 -- 255;
7 -- 95;
13 -- 209;
2 -- 316;
99 -- 494;
167 -- 242;
229 -- 112;
379 -- 438;
397 -- 342;
5 -- 214;
319 -- 452;
126 -- 255;
269 -- 203;
373 -- 330;
358 -- 374;
440 -- 243;
482 -- 392;
448 -- 133;
364 -- 21;
100 -- 235;
367 -- 387;
445 -- 61;
367 -- 360;
46 -- 130;
336 -- 391;
63 -- 264;
340 -- 41;
404 -- 17;
269 -- 231;
104 -- 179;
146 -- 250;
45 -- 200;
110 -- 26;
47 -- 209;
221 -- 455;
380 -- 165;
32 -- 346;
434 -- 305;
335 -- 237;
225 -- 222;
350 -- 231;
121 -- 387;
20 -- 263;
339 -- 169;
208 -- 391;
468 -- 449;
123 -- 464;
30 -- 261;
304 -- 289;
144 -- 27;
286 -- 118;
387 -- 131;
87 -- 408;
242 -- 448;
106 -- 210;
7 -- 415;
399 -- 427;
50 -- 357;
179 -- 111;
491 -- 122;
404 -- 355;
477 -- 122;
212 -- 206;
230 -- 80;
73 -- 186;
251 -- 170;
209 -- 340;
156 -- 485;
231 -- 452;
318 -- 322;
306 -- 213;
232 -- 105;
3 -- 45;
196 -- 338;
238 -- 268;
155 -- 190;
159 -- 492;
52 -- 61;
21 -- 70;
303 -- 246;
436 -- 411;
428 -- 482;
157 -- 266;
120 -- 47;
230 -- 314;
256 -- 129;
441 -- 211;
26 -- 308;
445 -- 55;
185 -- 2;
49 -- 415;
208 -- 483;
386 -- 368;
55 -- 131;
251 -- 244;
265 -- 27;
124 -- 310;
172 -- 228;
158 -- 471;
87 -- 321;
230 -- 278;
317 -- 408;
462 -- 343;
474 -- 460;
435 -- 231;
463 -- 138;
310 -- 112;
213 -- 487;
228 -- 69;
175 -- 166;
105 -- 238;
237 -- 483;
20 -- 330;
157 -- 427;
345 -- 464;
192 -- 371;
316 -- 292;
69 -- 496;
162 -- 367;
275 -- 433;
267 -- 479;
497 -- 14;
467 -- 379;
27 -- 368;
351 -- 330;
473 -- 397;
231 -- 362;
255 -- 150;
157 -- 207;
164 -- 268;
329 -- 313;
499 -- 384;
376 -- 100;
409 -- 15;
136 -- 368;
146 -- 391;
114 -- 234;
227 -- 208;
243 -- 467;
313 -- 19;
45 -- 411;
475 -- 401;
313 -- 464;
246 -- 215;
83 -- 445;
393 -- 102;
130 -- 302;
353 -- 82;
18 -- 451;
279 -- 373;
88 -- 389;
30 -- 214;
443 -- 77;
260 -- 19;
418 -- 32;
112 -- 224;
39 -- 308;
11;
23;
28;
29;
40;
53;
58;
85;
90;
91;
101;
119;
127;
132;
135;
141;
147;
151;
168;
178;
182;
184;
187;
191;
193;
201;
218;
220;
223;
236;
240;
241;
247;
270;
274;
282;
283;
293;
295;
296;
300;
307;
324;
325;
327;
354;
359;
390;
400;
413;
420;
429;
430;
432;
437;
444;
458;
469;
478;
481;
488;

}
